Looking for git in: git
Using git 2.7.4 from git
> git rev-parse --show-toplevel
> git config --get commit.template
Open repository: /var/www/html/dawtees
> git status -z -u
> git symbolic-ref --short HEAD
> git rev-parse pol_cambios2
> git rev-parse --symbolic-full-name pol_cambios2@{u}
fatal: no upstream configured for branch 'pol_cambios2'
> git for-each-ref --format %(refname) %(objectname) --sort -committerdate
> git remote --verbose
> git check-ignore -z --stdin
> git status -z -u
> git symbolic-ref --short HEAD
> git rev-parse pol_cambios2
> git rev-parse --symbolic-full-name pol_cambios2@{u}
fatal: no upstream configured for branch 'pol_cambios2'
> git for-each-ref --format %(refname) %(objectname) --sort -committerdate
> git remote --verbose
> git status -z -u
> git symbolic-ref --short HEAD
> git rev-parse pol_cambios2
> git rev-parse --symbolic-full-name pol_cambios2@{u}
fatal: no upstream configured for branch 'pol_cambios2'
> git for-each-ref --format %(refname) %(objectname) --sort -committerdate
> git remote --verbose
> git check-ignore -z --stdin
> git check-ignore -z --stdin
> git check-ignore -z --stdin
> git show :src/AppBundle/Controller/DefaultController.php
> git check-ignore -z --stdin
> git check-ignore -z --stdin
> git check-ignore -z --stdin
> git check-ignore -z --stdin
> git check-ignore -z --stdin
> git check-ignore -z --stdin
> git show :app/Resources/views/default/web/productList.html.twig
> git show :src/AppBundle/Controller/DefaultController.php
> git show :app/Resources/views/default/web/productList.html.twig
> git show :src/AppBundle/Controller/DefaultController.php
> git show :app/Resources/views/default/web/productList.html.twig
> git show :src/AppBundle/Controller/DefaultController.php
> git show :app/Resources/views/default/web/productList.html.twig
> git show :src/AppBundle/Controller/DefaultController.php
> git show :app/Resources/views/default/web/productList.html.twig
> git show :src/AppBundle/Controller/DefaultController.php
> git show :app/Resources/views/default/web/productList.html.twig
> git show :src/AppBundle/Controller/DefaultController.php
> git show :app/Resources/views/default/web/productList.html.twig
> git show :app/Resources/views/default/producto.html.twig
> git show :src/AppBundle/Controller/DefaultController.php
> git show :app/Resources/views/default/web/productList.html.twig
> git show :app/Resources/views/default/producto.html.twig
> git show :app/Resources/views/default/web/productList.html.twig
> git show :app/Resources/views/default/producto.html.twig
> git show :app/Resources/views/default/web/productList.html.twig
> git show :app/Resources/views/default/producto.html.twig
